{
	"swagger": "2.0",
	"info": {
	  "description": "Schemaless REST API providing\n\t  CRUD for 1 models: locations",
	  "title": "Example API spec",
	  "version": "0.7.0"
	},
	"host": "0.0.0.0:4567",
	"schemes": [
	  "http"
	],
	"basePath": "/",
	"paths": {
	  "/": {
		"get": {
		  "responses": {
			"200": {
			  "description": "Basic basic summary of API - could be used as health check"
			}
		  }
		}
	  },
	  "/locations": {
		"post": {
		  "parameters": [
			{
			  "description": "Arbitrary JSON object payload",
			  "in": "body",
			  "name": "body",
			  "required": true,
			  "schema": {
				"type": "object"
			  }
			}
		  ],
		  "responses": {
			"201": {
			  "description": "Response with id of created locations"
			}
		  }
		},
		"get": {
		  "description": "Get all of locations",
		  "parameters": [
			{
			  "name": "page",
			  "description": "Any key can be used to filter locations by",
			  "in": "query",
			  "type": "number",
			  "required": false
			}
		  ],
		  "responses": {
			"200": {
			  "description": "List of all locations objects"
			}
		  }
		}
	  },
	  "/locations/{modelId}": {
		"get": {
		  "description": "Data of locations at passed id",
		  "parameters": [
			{
			  "name": "modelId",
			  "in": "path",
			  "description": "ID of locations to return",
			  "required": true,
			  "type": "string"
			}
		  ],
		  "responses": {
			"200": {
			  "description": "Data of locations requested"
			},
			"404": {
			  "description": "locations not found"
			}
		  }
		},
		"put": {
		  "description": "Update id of locations to be provided data",
		  "parameters": [
			{
			  "description": "Arbitrary JSON object payload",
			  "in": "body",
			  "name": "body",
			  "required": true,
			  "schema": {
				"type": "object"
			  }
			},
			{
			  "name": "modelId",
			  "in": "path",
			  "description": "ID of locations to update",
			  "required": true,
			  "type": "string"
			}
		  ],
		  "responses": {
			"204": {
			  "description": "Response"
			},
			"404": {
			  "description": "locations not found"
			}
		  }
		},
		"delete": {
		  "description": "Delete locations at passed id",
		  "parameters": [
			{
			  "name": "modelId",
			  "in": "path",
			  "description": "ID of locations to return",
			  "required": true,
			  "type": "string"
			}
		  ],
		  "responses": {
			"204": {
			  "description": "Response"
			},
			"404": {
			  "description": "locations not found"
			}
		  }
		}
	  }
	}
  }